<svg width="464.0005034878803" height="464.0005034878803" xmlns="http://www.w3.org/2000/svg">

 <g>
  <title>Cookie 2</title>
  <rect height="402" width="582" y="-1" x="-1" fill="none" id="canvas_background"/>
 </g>
 <g>
  <title>Layer 1</title>
  <g id="svg_1">
   <g id="svg_2">
    <g id="svg_3">
     <ellipse ry="232" rx="232" cy="231" cx="232" stroke-width="null" stroke-opacity="null" stroke="null" fill-opacity="null" fill="#b97850" id="svg_110"/>
    </g>
   </g>
   <g id="svg_5">
    <g id="svg_6">
     <path d="m96,232c0,-111.669998 78.906998,-204.886999 184,-227c-15.490997,-3.259 -31.539993,-5 -48,-5c-128.129997,0 -232,103.869003 -232,232c0,128.130005 103.870003,232 232,232c16.460007,0 32.509003,-1.740997 48,-5c-105.093002,-22.114014 -184,-115.329987 -184,-227z" fill="#a5694b" id="svg_7"/>
    </g>
   </g>
   <g id="svg_8">
    <g id="svg_9">
     <path d="m192.5,223.242004l-7.964996,23.894989c-2.518005,7.554001 0.901993,15.809998 8.024002,19.369995l25.273987,12.637024c6.160004,3.079987 13.599014,1.872986 18.469009,-2.997009l15.011993,-15.011993c5.19101,-5.19101 6.18399,-13.250015 2.406006,-19.546005l-12.912003,-21.520004c-2.891998,-4.819 -8.100006,-7.768005 -13.720001,-7.768005l-19.408997,0c-6.886993,0 -13.001007,4.406998 -15.179001,10.94101z" fill="#734b46" id="svg_10"/>
    </g>
   </g>
   <g id="svg_11">
    <g id="svg_12">
     <path d="m104.017998,119.195999l7.57,24.022995c2.393005,7.594009 10.006004,12.27301 17.862,10.979004l27.880997,-4.595001c6.795013,-1.119995 12.111008,-6.462997 13.198013,-13.263l3.348999,-20.963997c1.15799,-7.25 -2.767014,-14.358002 -9.519012,-17.239998l-23.082001,-9.850998c-5.168991,-2.206001 -11.116989,-1.538002 -15.667992,1.758995l-15.717003,11.387001c-5.577995,4.041 -7.944,11.196999 -5.874001,17.764999z" fill="#734b46" id="svg_13"/>
    </g>
   </g>
   <g id="svg_14">
    <g id="svg_15">
     <path d="m274.737,95.436996l-20.25,14.978004c-6.401993,4.735001 -8.347992,13.456001 -4.565994,20.463005l13.421005,24.865997c3.270996,6.059998 10.052979,9.347992 16.836975,8.160995l20.913025,-3.658005c7.231995,-1.264999 12.674988,-7.289993 13.201996,-14.612991l1.799988,-25.031006c0.403015,-5.605995 -2.164001,-11.011993 -6.764008,-14.241997l-15.883972,-11.153999c-5.63501,-3.958 -13.172028,-3.864998 -18.709015,0.229996z" fill="#734b46" id="svg_16"/>
    </g>
   </g>
   <g id="svg_17">
    <g id="svg_18">
     <path d="m63.081001,253.065002l5.278,19.432007c1.668999,6.143005 7.599998,10.123993 13.917,9.341003l22.418999,-2.779022c5.463997,-0.677002 9.882004,-4.774994 10.967003,-10.173004l3.346001,-16.639984c1.156998,-5.753998 -1.750999,-11.557999 -7.052002,-14.076004l-18.123001,-8.608002c-4.058998,-1.927994 -8.831001,-1.584991 -12.571999,0.904007l-12.918999,8.593994c-4.585003,3.052002 -6.704002,8.692001 -5.261002,14.005005z" fill="#734b46" id="svg_19"/>
    </g>
   </g>
   <g id="svg_20">
    <g id="svg_21">
     <path d="m344.348999,300.959991l-24.541992,-5.664978c-7.757996,-1.791016 -15.653015,2.394989 -18.52301,9.822998l-10.186005,26.356995c-2.483002,6.423981 -0.575989,13.716003 4.733002,18.10199l16.367004,13.522003c5.660004,4.675995 13.776001,4.899994 19.686005,0.544006l20.200012,-14.891998c4.523987,-3.335022 6.965973,-8.799011 6.432983,-14.394012l-1.838989,-19.321991c-0.652008,-6.856018 -5.619019,-12.524994 -12.32901,-14.075012z" fill="#734b46" id="svg_22"/>
    </g>
   </g>
   <g id="svg_23">
    <g id="svg_24">
     <path d="m196.813995,367.721985l-13.287003,-15.088989c-4.199997,-4.769989 -11.268997,-5.725983 -16.584991,-2.242004l-18.865997,12.362c-4.598007,3.013 -6.751999,8.630005 -5.348007,13.945007l4.32901,16.384003c1.496994,5.665985 6.65799,9.585999 12.51799,9.507996l20.029999,-0.266998c4.486008,-0.059998 8.611008,-2.468994 10.868011,-6.346008l7.792999,-13.389984c2.765991,-4.751007 2.179993,-10.739014 -1.452011,-14.865021z" fill="#734b46" id="svg_25"/>
    </g>
   </g>
   <g id="svg_26">
    <g id="svg_27">
     <path d="m128.955002,143.218994l-7.57,-24.022995c-2.07,-6.568001 0.295998,-13.724998 5.873001,-17.765999l15.717003,-11.387001c0.332993,-0.241997 0.718994,-0.364998 1.065994,-0.579002l-2.766006,-1.181c-5.168991,-2.204994 -11.116989,-1.536995 -15.667992,1.760002l-15.717003,11.387001c-5.576996,4.041 -7.943001,11.196999 -5.873001,17.765999l7.57,24.022995c2.393005,7.594009 10.006004,12.27301 17.862007,10.979004l8.04599,-1.326004c-3.953995,-1.839996 -7.145996,-5.22699 -8.539993,-9.653z" fill="#644141" id="svg_28"/>
    </g>
   </g>
   <g id="svg_29">
    <g id="svg_30">
     <path d="m280.709015,155.744995l-13.421021,-24.865997c-3.781982,-7.006996 -1.835999,-15.728996 4.565002,-20.463997l20.25,-14.976997c0.272003,-0.202003 0.597992,-0.275002 0.878998,-0.457001c-5.583984,-3.653999 -12.850983,-3.533005 -18.247009,0.457001l-20.249985,14.976997c-6.401001,4.735001 -8.348007,13.457001 -4.565002,20.463997l13.421005,24.865997c3.270996,6.061005 10.053009,9.348007 16.837006,8.161011l7.688995,-1.345001c-2.973999,-1.430008 -5.511993,-3.768005 -7.15799,-6.81601z" fill="#644141" id="svg_31"/>
    </g>
   </g>
   <g id="svg_32">
    <g id="svg_33">
     <path d="m329.565002,363.098999l-16.367004,-13.522003c-5.30899,-4.386993 -7.216003,-11.678009 -4.733002,-18.10199l10.186005,-26.356995c1.437012,-3.71701 4.131989,-6.621002 7.437988,-8.373016l-6.281982,-1.449005c-7.759003,-1.790985 -15.653015,2.39502 -18.52301,9.822021l-10.186005,26.356995c-2.483002,6.423981 -0.575989,13.714996 4.733002,18.10199l16.367004,13.522003c5.442017,4.497009 13.113007,4.765015 18.951996,0.914001c-0.516998,-0.334991 -1.100983,-0.515015 -1.584991,-0.914001z" fill="#644141" id="svg_34"/>
    </g>
   </g>
   <g id="svg_35">
    <g id="svg_36">
     <path d="m209.925995,266.506012c-7.121994,-3.561005 -10.541992,-11.81601 -8.024002,-19.369019l7.965012,-23.895996c2.177994,-6.533997 8.291992,-10.940002 15.179001,-10.940002l-17.367004,0c-6.886993,0 -13.001007,4.406006 -15.179001,10.940002l-7.964996,23.895996c-2.518005,7.553009 0.901001,15.809021 8.022995,19.369019l25.272995,12.638c5.065002,2.531982 10.917999,2.021973 15.574005,-0.896027l-23.479004,-11.741974z" fill="#644141" id="svg_37"/>
    </g>
   </g>
   <g id="svg_38">
    <g id="svg_39">
     <path d="m85.725998,272.497009l-5.278,-19.433014c-1.443001,-5.312988 0.675003,-10.953003 5.260002,-14.002991l11.714996,-7.792007l-3.589996,-1.705002c-4.058998,-1.927994 -8.831001,-1.584 -12.571999,0.904007l-12.918999,8.593002c-4.584003,3.049988 -6.703003,8.690002 -5.260002,14.002991l5.278,19.433014c1.667999,6.143982 7.599998,10.123993 13.917,9.34198l10.433998,-1.293976c-3.294998,-1.551025 -5.971001,-4.313019 -6.985001,-8.048004z" fill="#644141" id="svg_40"/>
    </g>
   </g>
   <g id="svg_41">
    <g id="svg_42">
     <path d="m164.423996,393.080994l-4.328995,-16.384003c-1.404007,-5.315002 0.75,-10.931976 5.347992,-13.944977l16.886002,-11.064026c-4.258987,-3.791992 -10.511002,-4.491974 -15.386993,-1.296997l-18.865997,12.361023c-4.598007,3.013977 -6.751999,8.629974 -5.348007,13.944977l4.32901,16.384003c1.496994,5.666016 6.65799,9.587006 12.51799,9.509003l15.99501,-0.213989c-5.26001,-0.511993 -9.771011,-4.08902 -11.146011,-9.295013z" fill="#644141" id="svg_43"/>
    </g>
   </g>
   <g id="svg_44">
    <g id="svg_45">
     <path d="m216,174.333328l0,0c-4.417999,0 -8,-3.582001 -8,-8l0,-16c0,-4.417999 3.582001,-8 8,-8l0,0c4.417999,0 8,3.582001 8,8l0,16c0,4.417999 -3.582001,8 -8,8z" fill="#c98850" id="svg_46"/>
    </g>
   </g>
   <g id="svg_47">
    <g id="svg_48">
     <path d="m147.313995,210.313995l0,0c-3.123993,3.124008 -8.190002,3.124008 -11.313995,0l-11.314003,-11.313995c-3.124001,-3.123993 -3.124001,-8.188995 0,-11.313995l0,0c3.124001,-3.124008 8.19001,-3.124008 11.314003,0l11.313995,11.313995c3.124008,3.123993 3.124008,8.190002 0,11.313995z" fill="#925f4a" id="svg_49"/>
    </g>
   </g>
   <g id="svg_50">
    <g id="svg_51">
     <path d="m146.121002,317.881012l0,0c-4.109009,-1.623016 -6.124008,-6.271027 -4.501007,-10.380005l5.878998,-14.881012c1.623001,-4.109009 6.271011,-6.123993 10.380005,-4.501007l0,0c4.109009,1.623016 6.124008,6.271027 4.501007,10.380005l-5.878998,14.881012c-1.623001,4.109009 -6.271011,6.123993 -10.380005,4.501007z" fill="#c98850" id="svg_52"/>
    </g>
   </g>
   <g id="svg_53">
    <g id="svg_54">
     <path d="m240.516998,340.968994l0,0c-4.296997,1.029999 -8.613998,-1.618988 -9.643997,-5.915985l-3.727997,-15.559998c-1.029999,-4.296997 1.619003,-8.614014 5.916,-9.644012l0,0c4.296997,-1.029999 8.613998,1.618988 9.643997,5.916016l3.727997,15.559998c1.029999,4.29599 -1.619003,8.613983 -5.916,9.643982z" fill="#925f4a" id="svg_55"/>
    </g>
   </g>
   <g id="svg_56">
    <g id="svg_57">
     <path d="m264.596008,410.022003l0,0c-1.670013,-4.091003 0.291992,-8.76001 4.382996,-10.429993l14.812988,-6.048004c4.091003,-1.670013 8.76001,0.291992 10.429993,4.382996l0,0c1.670013,4.091003 -0.291992,8.76001 -4.382996,10.429993l-14.812988,6.048004c-4.091003,1.669006 -8.76001,-0.292999 -10.429993,-4.382996z" fill="#925f4a" id="svg_58"/>
    </g>
   </g>
   <g id="svg_59">
    <g id="svg_60">
     <path d="m217.876999,63.223l0,0c1.037003,-4.294998 5.358994,-6.936001 9.654007,-5.899998l15.552994,3.753998c4.294998,1.036999 6.936005,5.358997 5.899994,9.654003l0,0c-1.036987,4.294998 -5.358994,6.935997 -9.653992,5.899994l-15.553009,-3.753998c-4.294998,-1.037003 -6.936996,-5.359001 -5.899994,-9.653999z" fill="#925f4a" id="svg_61"/>
    </g>
   </g>
   <g id="svg_62">
    <g id="svg_63">
     <path d="m71.931999,349.605988l0,0c-4.160995,-1.484985 -6.331001,-6.061981 -4.846001,-10.222992l5.376999,-15.069c1.485001,-4.16098 6.062004,-6.330994 10.223,-4.846008l0,0c4.161003,1.485016 6.331001,6.062012 4.846001,10.223022l-5.376999,15.069c-1.485001,4.16098 -6.061996,6.330994 -10.223,4.845978z" fill="#925f4a" id="svg_64"/>
    </g>
   </g>
   <g id="svg_65">
    <g id="svg_66">
     <path d="m60.445,161.330994l0,0c4.292999,-1.042999 8.619003,1.59201 9.662003,5.886002l3.776001,15.548004c1.042999,4.292999 -1.592003,8.619003 -5.886002,9.662003l0,0c-4.293003,1.042999 -8.619003,-1.591995 -9.662003,-5.886002l-3.776001,-15.548004c-1.042,-4.292999 1.593002,-8.619003 5.886002,-9.662003z" fill="#c98850" id="svg_67"/>
    </g>
   </g>
   <g id="svg_68">
    <g id="svg_69">
     <path d="m284.686005,234.313995l0,0c-3.123993,-3.123993 -3.123993,-8.190002 0,-11.313995l11.313995,-11.313995c3.123993,-3.124008 8.190002,-3.124008 11.313995,0l0,0c3.123993,3.123993 3.123993,8.188995 0,11.313995l-11.313995,11.313995c-3.123993,3.124008 -8.190002,3.124008 -11.313995,0z" fill="#925f4a" id="svg_70"/>
    </g>
   </g>
   <g id="svg_71">
    <g id="svg_72">
     <path d="m391.028992,265.342987l0,0c3.124023,-3.123993 8.190002,-3.123993 11.313995,0l11.314026,11.314026c3.123993,3.123993 3.123993,8.189972 0,11.313995l0,0c-3.124023,3.123993 -8.190002,3.123993 -11.314026,0l-11.313995,-11.313995c-3.123993,-3.124023 -3.123993,-8.190002 0,-11.314026z" fill="#925f4a" id="svg_73"/>
    </g>
   </g>
   <g id="svg_74">
    <g id="svg_75">
     <path d="m393.125,327.799988l0,0c4.087006,1.680023 6.037994,6.354004 4.358002,10.44101l-6.082001,14.799011c-1.679993,4.087006 -6.354004,6.037994 -10.440002,4.358002l0,0c-4.087006,-1.680023 -6.037994,-6.354004 -4.358002,-10.44101l6.082001,-14.799011c1.679016,-4.086975 6.354004,-6.037994 10.440002,-4.358002z" fill="#c98850" id="svg_76"/>
    </g>
   </g>
   <g id="svg_80"/>
   <g transform="rotate(-45 400.606 174.317)" id="svg_113">
    <g id="svg_112">
     <path d="m377.799072,154.842621l-6.640564,19.950333c-2.099274,6.306961 0.751984,13.200027 6.689758,16.172333l21.071228,10.550873c5.135712,2.571533 11.337677,1.563782 15.397888,-2.502258l12.515686,-12.533768c4.32782,-4.334061 5.155731,-11.062668 2.005951,-16.31929l-10.764954,-17.967422c-2.411102,-4.023468 -6.753082,-6.485641 -11.438568,-6.485641l-16.181519,0c-5.74176,0 -10.839111,3.679474 -12.654907,9.134842z" fill="#734b46" id="svg_111"/>
    </g>
   </g>
   <g transform="rotate(-45 393.892 181.121)" id="svg_116">
    <g id="svg_115">
     <path d="m395.016235,197.755524c-5.855286,-2.966507 -8.666931,-9.843338 -6.596771,-16.135391l6.548187,-19.90657c1.79068,-5.443161 6.817261,-9.113602 12.479187,-9.113602l-14.277954,0c-5.662109,0 -10.688599,3.670441 -12.479248,9.113602l-6.548279,19.90657c-2.070129,6.292053 0.740784,13.169724 6.595947,16.135391l20.777893,10.528091c4.164124,2.109283 8.976074,1.684402 12.803955,-0.746414l-19.302917,-9.781677z" fill="#644141" id="svg_114"/>
    </g>
   </g>
   <g transform="rotate(-39 348.667 57.6666)" id="svg_119">
    <g id="svg_118">
     <path d="m342.787659,72.547676l0,0c-4.109009,-1.623016 -6.123993,-6.271027 -4.501007,-10.380005l5.878998,-14.881012c1.623016,-4.109009 6.271027,-6.123993 10.380005,-4.501007l0,0c4.109009,1.623016 6.123993,6.271027 4.501007,10.380005l-5.878998,14.881012c-1.623016,4.109009 -6.271027,6.123993 -10.380005,4.501007z" fill="#c98850" id="svg_117"/>
    </g>
   </g>
   <g transform="rotate(-67 371.693 401.925)" id="svg_122">
    <g id="svg_121">
     <path d="m387.570526,396.762024l-8.220581,-10.086212c-2.598541,-3.188477 -6.972076,-3.827515 -10.261047,-1.498657l-11.672302,8.263367c-2.844727,2.014008 -4.177399,5.768677 -3.308746,9.321472l2.678314,10.951843c0.926208,3.787415 4.119263,6.407745 7.744812,6.355591l12.392456,-0.178467c2.775452,-0.0401 5.327576,-1.650391 6.723938,-4.241974l4.821503,-8.9505c1.711304,-3.175781 1.348724,-7.178467 -0.898346,-9.936462z" fill="#734b46" id="svg_120"/>
    </g>
   </g>
   <g transform="rotate(-68 369.724 406.917)" id="svg_125">
    <g id="svg_124">
     <path d="m371.05896,418.67215l-2.741455,-10.94162c-0.889099,-3.5495 0.475006,-7.30069 3.38678,-9.312714l10.693512,-7.388824c-2.697144,-2.53244 -6.656372,-2.999939 -9.744232,-0.866211l-11.947418,8.255035c-2.911743,2.012726 -4.275848,5.763214 -3.386719,9.312714l2.741455,10.94162c0.948029,3.783844 4.216309,6.402435 7.927338,6.350281l10.129211,-0.142944c-3.331024,-0.341827 -6.187714,-2.730743 -7.058472,-6.207336z" fill="#644141" id="svg_123"/>
    </g>
   </g>
   <g transform="rotate(-68 351.333 140.333)" id="svg_128">
    <g id="svg_127">
     <path d="m340.019348,151.647324l0,0c-3.123993,-3.123993 -3.123993,-8.190002 0,-11.313995l11.313995,-11.313995c3.123993,-3.124008 8.190002,-3.124008 11.313995,0l0,0c3.123993,3.123993 3.123993,8.188995 0,11.313995l-11.313995,11.313995c-3.123993,3.124008 -8.190002,3.124008 -11.313995,0z" fill="#925f4a" id="svg_126"/>
    </g>
   </g>
   <g transform="rotate(-149 354.667 230.333)" id="svg_131">
    <g id="svg_130">
     <path d="m354.666687,246.333328l0,0c-4.417999,0 -8,-3.582001 -8,-8l0,-16c0,-4.417999 3.582001,-8 8,-8l0,0c4.417969,0 8,3.582001 8,8l0,16c0,4.417999 -3.582031,8 -8,8z" fill="#c98850" id="svg_129"/>
    </g>
   </g>
   <g id="svg_134">
    <g id="svg_133">
     <path d="m121.333679,33.674324l4.576431,15.426075c1.446686,4.8764 6.049118,7.880955 10.798462,7.05003l16.855423,-2.950623c4.107895,-0.719189 7.321686,-4.150139 7.978821,-8.516674l2.024765,-13.461773c0.700058,-4.655497 -1.672913,-9.219812 -5.754822,-11.070452l-13.954193,-6.325699c-3.124924,-1.416555 -6.720779,-0.987607 -9.472076,1.12952l-9.501694,7.312021c-3.372162,2.594879 -4.802521,7.190016 -3.551117,11.407574z" fill="#734b46" id="svg_132"/>
    </g>
   </g>
   <g id="svg_137">
    <g id="svg_136">
     <path d="m136.359726,50.100311l-4.575729,-15.426216c-1.251205,-4.217604 0.178925,-8.813427 3.549957,-11.408329l9.500244,-7.312094c0.201248,-0.155397 0.434601,-0.234382 0.644333,-0.371803l-1.671921,-0.758371c-3.12442,-1.415926 -6.719727,-0.986972 -9.470596,1.130175l-9.500229,7.312094c-3.371048,2.594902 -4.801193,7.190083 -3.549973,11.408329l4.575729,15.426216c1.446472,4.87645 6.048172,7.881039 10.796768,7.050098l4.863449,-0.851479c-2.390015,-1.181545 -4.319458,-3.356483 -5.162033,-6.19862z" fill="#644141" id="svg_135"/>
    </g>
   </g>
   <g transform="rotate(-91 100 73)" id="svg_140">
    <g id="svg_139">
     <path d="m111.313995,84.313995l0,0c-3.123993,3.124008 -8.190002,3.124008 -11.313995,0l-11.314011,-11.313995c-3.123993,-3.123993 -3.123993,-8.188995 0,-11.313995l0,0c3.124008,-3.124008 8.190018,-3.124008 11.314011,0l11.313995,11.313995c3.124008,3.123993 3.124008,8.190002 0,11.313995z" fill="#925f4a" id="svg_138"/>
    </g>
   </g>
   <g transform="rotate(-105 155.043 425.599)" id="svg_143">
    <g id="svg_142">
     <path d="m161.125,410.799988l0,0c4.087006,1.680023 6.037994,6.354004 4.358002,10.44101l-6.082001,14.799011c-1.679993,4.087006 -6.354004,6.037994 -10.440002,4.358002l0,0c-4.087006,-1.680023 -6.037994,-6.354004 -4.358002,-10.44101l6.082001,-14.799011c1.679016,-4.086975 6.354004,-6.037994 10.440002,-4.358002z" fill="#c98850" id="svg_141"/>
    </g>
   </g>
  </g>
  <g id="svg_95"/>
  <g id="svg_96"/>
  <g id="svg_97"/>
  <g id="svg_98"/>
  <g id="svg_99"/>
  <g id="svg_100"/>
  <g id="svg_101"/>
  <g id="svg_102"/>
  <g id="svg_103"/>
  <g id="svg_104"/>
  <g id="svg_105"/>
  <g id="svg_106"/>
  <g id="svg_107"/>
  <g id="svg_108"/>
  <g id="svg_109"/>
 </g>
</svg>
