{
  "project_info": {
    "project_number": "565406124797",
    "firebase_url": "https://kryptage-81194.firebaseio.com",
    "project_id": "kryptage-81194",
    "storage_bucket": "kryptage-81194.appspot.com"
  },
  "client": [
    {
      "client_info": {
        "mobilesdk_app_id": "1:565406124797:android:b6e00700b9e6dde8",
        "android_client_info": {
          "package_name": "fr.cylpios.kryptage_o"
        }
      },
      "oauth_client": [
        {
          "client_id": "565406124797-hkfs1blb9ut28q785nuckuffjqtur0ob.apps.googleusercontent.com",
          "client_type": 1,
          "android_info": {
            "package_name": "fr.cylpios.kryptage_o",
            "certificate_hash": "0c1c04df2375b5f7286afb5bfaee5427c8915a93"
          }
        },
        {
          "client_id": "565406124797-f4d81h0fb5tt8caki5t7kmr0nk1r49cv.apps.googleusercontent.com",
          "client_type": 3
        }
      ],
      "api_key": [
        {
          "current_key": "AIzaSyCHOQriQxXdAoVKKTcEDoDccbngfXoFvF0"
        }
      ],
      "services": {
        "analytics_service": {
          "status": 1
        },
        "appinvite_service": {
          "status": 2,
          "other_platform_oauth_client": [
            {
              "client_id": "565406124797-f4d81h0fb5tt8caki5t7kmr0nk1r49cv.apps.googleusercontent.com",
              "client_type": 3
            }
          ]
        },
        "ads_service": {
          "status": 2
        }
      }
    },
    {
      "client_info": {
        "mobilesdk_app_id": "1:565406124797:android:57606727b7a3733a",
        "android_client_info": {
          "package_name": "fr.cylpios.kryptage_one"
        }
      },
      "oauth_client": [
        {
          "client_id": "565406124797-pmnsgrioh2cusp0onqq0hfvqaeabcqdl.apps.googleusercontent.com",
          "client_type": 1,
          "android_info": {
            "package_name": "fr.cylpios.kryptage_one",
            "certificate_hash": "0c1c04df2375b5f7286afb5bfaee5427c8915a93"
          }
        },
        {
          "client_id": "565406124797-f4d81h0fb5tt8caki5t7kmr0nk1r49cv.apps.googleusercontent.com",
          "client_type": 3
        }
      ],
      "api_key": [
        {
          "current_key": "AIzaSyCHOQriQxXdAoVKKTcEDoDccbngfXoFvF0"
        }
      ],
      "services": {
        "analytics_service": {
          "status": 1
        },
        "appinvite_service": {
          "status": 2,
          "other_platform_oauth_client": [
            {
              "client_id": "565406124797-f4d81h0fb5tt8caki5t7kmr0nk1r49cv.apps.googleusercontent.com",
              "client_type": 3
            }
          ]
        },
        "ads_service": {
          "status": 2
        }
      }
    }
  ],
  "configuration_version": "1"
}